2.2 dplyr | Entre Florestas e Dados
…
# Criando um exemplo de dados florestais
library(dplyr)

dados_florestais <- tibble::tibble(
  parcela = rep(1:5, each = 10),
  especie = sample(c("Cedro", "Ipê", "Jatobá", "Angelim", "Castanheira"), 50, replace = TRUE),
  dap_cm = round(runif(50, 10, 80), 1),  # Diâmetro em cm
  altura_m = round(runif(50, 5, 30), 1),  # Altura em metros
  volume_m3 = dap_cm * altura_m * 0.00007854 # Fórmula fictícia para volume
)

dados_florestais

## # A tibble: 50 × 5
##    parcela especie     dap_cm altura_m volume_m3
##      <int> <chr>        <dbl>    <dbl>     <dbl>
##  1       1 Jatobá        41.1     22     0.0710 
##  2       1 Cedro         53.9     27.6   0.117  
##  3       1 Castanheira   10        5.6   0.00440
##  4       1 Cedro         25.2     29.7   0.0588 
##  5       1 Angelim       59.3     12.6   0.0587 
##  6       1 Ipê           25.1     28.5   0.0562 
##  7       1 Ipê           67       22.2   0.117  
##  8       1 Angelim       31.5     16.2   0.0401 
##  9       1 Cedro         58.1     25.4   0.116  
## 10       1 Angelim       75.3      6     0.0355 
## # ℹ 40 more rows
…
