2 R Intermediário | Entre Florestas e Dados
…
# Criando um exemplo de dados florestais
library(dplyr)

dados_florestais <- tibble::tibble(
  parcela = rep(1:5, each = 10),
  especie = sample(c("Cedro", "Ipê", "Jatobá", "Angelim", "Castanheira"), 50, replace = TRUE),
  dap_cm = round(runif(50, 10, 80), 1),  # Diâmetro em cm
  altura_m = round(runif(50, 5, 30), 1),  # Altura em metros
  volume_m3 = dap_cm * altura_m * 0.00007854 # Fórmula fictícia para volume
)

dados_florestais

## # A tibble: 50 × 5
##    parcela especie     dap_cm altura_m volume_m3
##      <int> <chr>        <dbl>    <dbl>     <dbl>
##  1       1 Ipê           23.5     28.8    0.0532
##  2       1 Ipê           11.2     13      0.0114
##  3       1 Cedro         38.5     17      0.0514
##  4       1 Ipê           43.8      5.7    0.0196
##  5       1 Cedro         39.5     18.7    0.0580
##  6       1 Castanheira   34       21.1    0.0563
##  7       1 Ipê           70.7     19.9    0.111 
##  8       1 Jatobá        41.9     13      0.0428
##  9       1 Castanheira   47.4     27.3    0.102 
## 10       1 Angelim       77.5     20.7    0.126 
## # ℹ 40 more rows
…
